%YAML 1.1
%TAG !u! tag:unity3d.com,2011:
--- !u!1045 &1
EditorBuildSettings:
  m_ObjectHideFlags: 0
  serializedVersion: 2
  m_Scenes:
  - enabled: 1
    path: Assets/scenes/00.title/00.title.unity
    guid: c353090c039659246b26f192e2ef45b6
  - enabled: 1
    path: Assets/scenes/01.game/01.GameScene.unity
    guid: 7d6e8aa046823d143a0d8455fd258492
  - enabled: 1
    path: Assets/scenes/02.end/02.end.unity
    guid: b51b79f7187d673409be693c4a104c2b
  - enabled: 1
    path: Assets/scenes/03.dead/03.dead.unity
    guid: 030ebdb13ceeaee40ae38b10c5a32d30
  m_configObjects: {}
